[gd_scene load_steps=5 format=2]

[ext_resource path="res://Scenes/Cell.tscn" type="PackedScene" id=1]
[ext_resource path="res://Scripts/Game manager.gd" type="Script" id=2]
[ext_resource path="res://Scenes/HUD.tscn" type="PackedScene" id=3]
[ext_resource path="res://Assets/Suoni/cell04.wav" type="AudioStream" id=5]

[node name="Game manager" type="Node2D"]
script = ExtResource( 2 )
cell_scene = ExtResource( 1 )

[node name="HUD" parent="." instance=ExtResource( 3 )]

[node name="Restart_delay" type="Timer" parent="."]
one_shot = true

[node name="Tween" type="Tween" parent="."]
playback_speed = 5.0
playback/speed = 5.0

[node name="AudioStreamPlayer" type="AudioStreamPlayer" parent="."]
stream = ExtResource( 5 )

[node name="GridContainer" type="GridContainer" parent="."]
margin_top = 70.0
margin_right = 720.0
margin_bottom = 1280.0
size_flags_horizontal = 3
size_flags_vertical = 3
columns = 3
__meta__ = {
"_edit_use_anchors_": false
}

[connection signal="segnale_esci" from="HUD" to="." method="_on_HUD_segnale_esci"]
[connection signal="start_game" from="HUD" to="." method="_on_HUD_start_game"]
[connection signal="undo_signal" from="HUD" to="." method="_on_HUD_undo_signal"]
[connection signal="timeout" from="Restart_delay" to="." method="_on_Restart_delay_timeout"]
