<?xml version="1.0" encoding="UTF-8" standalone="no"?>
<!-- Created with Inkscape (http://www.inkscape.org/) -->

<svg
   width="16"
   height="16"
   viewBox="0 0 16 16"
   version="1.1"
   id="svg5"
   sodipodi:docname="grey square(2r).svg"
   inkscape:version="1.1.2 (0a00cf5339, 2022-02-04)"
   xmlns:inkscape="http://www.inkscape.org/namespaces/inkscape"
   xmlns:sodipodi="http://sodipodi.sourceforge.net/DTD/sodipodi-0.dtd"
   xmlns="http://www.w3.org/2000/svg"
   xmlns:svg="http://www.w3.org/2000/svg">
  <sodipodi:namedview
     id="namedview7"
     pagecolor="#ffffff"
     bordercolor="#666666"
     borderopacity="1.0"
     inkscape:pageshadow="2"
     inkscape:pageopacity="0.0"
     inkscape:pagecheckerboard="0"
     inkscape:document-units="px"
     showgrid="false"
     inkscape:zoom="23.344485"
     inkscape:cx="3.7910452"
     inkscape:cy="9.7239239"
     inkscape:window-width="1920"
     inkscape:window-height="979"
     inkscape:window-x="0"
     inkscape:window-y="32"
     inkscape:window-maximized="1"
     inkscape:current-layer="layer1" />
  <defs
     id="defs2">
    <marker
       style="overflow:visible;"
       id="Arrow2Lend"
       refX="0.0"
       refY="0.0"
       orient="auto"
       inkscape:stockid="Arrow2Lend"
       inkscape:isstock="true">
      <path
         transform="scale(1.1) rotate(180) translate(1,0)"
         d="M 8.7185878,4.0337352 L -2.2072895,0.016013256 L 8.7185884,-4.0017078 C 6.9730900,-1.6296469 6.9831476,1.6157441 8.7185878,4.0337352 z "
         style="stroke:context-stroke;fill-rule:evenodd;fill:context-stroke;stroke-width:0.62500000;stroke-linejoin:round;"
         id="path1849" />
    </marker>
  </defs>
  <g
     inkscape:label="Layer 1"
     inkscape:groupmode="layer"
     id="layer1">
    <rect
       style="fill:#949494;fill-opacity:1;stroke:none;stroke-width:10.759;stroke-miterlimit:4;stroke-dasharray:none"
       id="rect4222"
       width="16"
       height="16"
       x="0"
       y="0" />
    <rect
       style="fill:#ff0202;fill-opacity:1;stroke:none;stroke-width:10.759;stroke-miterlimit:4;stroke-dasharray:none"
       id="rect8720-3"
       width="4"
       height="4"
       x="10"
       y="6"
       rx="1"
       ry="1" />
    <rect
       style="fill:#ff0202;fill-opacity:1;stroke:none;stroke-width:10.759;stroke-miterlimit:4;stroke-dasharray:none"
       id="rect8720"
       width="4"
       height="4"
       x="2"
       y="6"
       rx="1"
       ry="1" />
  </g>
</svg>
